{"_meta":{"success":true,"code":200,"message":"OK. Everything worked as expected.","totalCount":2014,"pageCount":101,"currentPage":1,"perPage":20,"rateLimit":{"limit":10,"remaining":7,"reset":18}},"result":[
    {"id":"10","post_id":"8583","name":"Cortez Botsford","email":"zjacobs@funk.biz","body":"Ipsa totam voluptas consequatur. Illum temporibus soluta rem illum natus. Quis natus libero aut dolore nihil.\n\nVoluptas molestiae accusantium praesentium. Quaerat et sed totam. Et nulla ipsa id eaque."},
    {"id":"20","post_id":"9195","name":"Zora Morar","email":"tyree47@oconner.com","body":"Ipsa nisi sint qui sint consequatur repudiandae sunt quis. Qui voluptatem sit perspiciatis est qui sequi. Pariatur sint nisi praesentium ut. Nostrum iure minus et in qui nesciunt."},
    {"id":"24","post_id":"9366","name":"Otis Dooley","email":"wunsch.gudrun@gmail.com","body":"Quia qui voluptate quidem quas sint consequatur. Nihil quaerat ut sunt error ut. Pariatur unde sed consequatur distinctio omnis ratione exercitationem optio.\n\nModi qui sunt dolores ut atque. Inventore quasi fugiat alias nisi adipisci aspernatur sunt. Tempore quia omnis qui corporis perspiciatis. Dolores voluptatibus corrupti laborum rerum id nihil et eveniet."},
    {"id":"26","post_id":"8918","name":"Keaton Parker","email":"mae69@senger.com","body":"Nulla deserunt odit quidem a. In ut libero veritatis autem voluptatum quos. Inventore cum ea voluptatibus voluptatum. Placeat natus qui quasi nobis error similique."},
    {"id":"32","post_id":"8608","name":"Clotilde Spencer","email":"santiago25@hotmail.com","body":"Laudantium quisquam dolorem saepe iure tempore velit dolore. Voluptatem veritatis quia dolore molestias eos commodi earum. Exercitationem perferendis ut et eum sunt. Et repellendus labore aspernatur odit perspiciatis accusantium."},
    {"id":"35","post_id":"9546","name":"Irving Pfannerstill","email":"brianne.weber@jacobs.com","body":"Itaque sint sed voluptatem. Vitae omnis non tenetur at veniam perspiciatis rem eligendi."},
    {"id":"37","post_id":"7470","name":"Libby Lubowitz","email":"eriberto.auer@stokes.com","body":"Sit quia quos sed commodi sequi nemo. Perspiciatis molestias error ea quo excepturi sint vitae.\n\nVoluptate autem sunt et rem non incidunt voluptas. Fugit architecto fuga exercitationem aut ipsum. Est libero quidem qui qui.\n\nSequi dignissimos sed reprehenderit. Non incidunt quibusdam explicabo aliquam nulla hic."},
    {"id":"39","post_id":"5629","name":"Mr. Baron Barton II","email":"oconner.kayleigh@gmail.com","body":"Quis inventore quas ut autem excepturi dolorum non. Pariatur molestiae iste ab aut dolores maxime. Sed nemo sunt explicabo impedit doloremque quis ratione voluptatem. Corrupti sint magnam quia.\n\nEaque beatae necessitatibus sit est. Exercitationem consequatur veritatis voluptate. Porro sed quam aut eius. Ut maiores quia optio et eveniet repellat."},
    {"id":"49","post_id":"6567","name":"Edna Bailey","email":"jada75@hotmail.com","body":"Ipsa sint est et sit modi. Quibusdam qui corrupti cum. Sunt cumque deserunt ab molestias mollitia exercitationem. Necessitatibus incidunt est explicabo.\n\nEa id numquam omnis sapiente et. Iusto doloremque asperiores esse consequatur eos ipsa autem. Quas ipsam suscipit molestias omnis corrupti sequi in beatae."},
    {"id":"53","post_id":"8473","name":"Audie Upton","email":"mack54@murphy.biz","body":"Quas sit eos est. Voluptatem cum et in et aut. Rerum repellendus fuga cumque."},
    {"id":"54","post_id":"7090","name":"Piper Baumbach DVM","email":"tiana.strosin@yahoo.com","body":"Tenetur alias ducimus quam assumenda omnis. Tenetur sint ut porro ullam earum voluptas eum. Minima sequi dolorem maxime non quo omnis. Ipsa odio facilis minima dolor et doloremque.\n\nSit possimus accusantium est molestias asperiores delectus voluptates consequuntur. Quis qui est qui consequatur voluptas sed. Est corrupti quidem corporis."},
    {"id":"58","post_id":"6145","name":"Melany Botsford","email":"pschumm@thompson.com","body":"Sed et qui iusto architecto illum. Aut sunt qui dolorem ea. Harum corporis distinctio voluptas. Minus sunt laudantium illo quidem officia repellat vero."},
    {"id":"61","post_id":"8984","name":"Felicita Waters DVM","email":"smorar@hotmail.com","body":"Molestias reprehenderit voluptatem iusto molestiae ab earum rerum. In quas reprehenderit doloribus vel omnis. Adipisci enim explicabo dolorem similique pariatur eos repellat."},
    {"id":"65","post_id":"5487","name":"Jewell Kautzer","email":"bell01@gibson.com","body":"Est praesentium et tenetur numquam dicta velit cum animi. Iure ipsum deserunt temporibus modi. Minima delectus nostrum iusto ipsam et sit.\n\nQuo et necessitatibus provident vel sunt pariatur non. Ipsa aut quod molestias nobis sed soluta distinctio. Aut provident porro asperiores voluptatum neque. Libero nisi expedita dolores culpa sed quia.\n\nAb sunt vel cupiditate voluptatem quaerat incidunt rem. Sed quaerat unde harum ullam non repellat. Ut quo cumque quo rerum velit quas explicabo. Quia eos nobis modi aut."},
    {"id":"66","post_id":"5726","name":"Alvera Green","email":"schiller.verda@keebler.com","body":"Aut mollitia dignissimos ullam porro. Unde repellat veniam repudiandae voluptatem recusandae nihil. Id eos nisi vel sint nihil omnis.\n\nEarum expedita culpa nihil provident. Dolores et exercitationem dolor totam repellat reiciendis. Veritatis excepturi ut sed blanditiis reprehenderit eos. Ratione dolorum asperiores qui quas ut nihil.\n\nDeleniti dolorum quibusdam voluptatem odio dolor commodi sed. Voluptate explicabo asperiores rerum est fuga et minima facere. Molestias cumque facilis quod officia corporis sit."},
    {"id":"69","post_id":"7826","name":"Whitney Kozey","email":"arthur74@yahoo.com","body":"Animi quibusdam corporis et delectus ullam porro. Nisi porro eum velit dignissimos omnis. Eum ipsum libero dolorem quam ducimus aut et.\n\nMolestiae iste esse aut. Eum voluptatibus tenetur aut deleniti non nobis. Labore mollitia ad qui doloribus non. Beatae commodi ratione qui a minus rerum.\n\nMolestiae earum sapiente voluptatem aut reprehenderit veritatis laboriosam. Numquam molestias molestiae voluptatem eligendi molestiae. Quos vitae accusamus voluptas quam nisi eum dolorem."},
    {"id":"76","post_id":"7709","name":"Manley Kessler","email":"zieme.leila@kuhlman.com","body":"In quaerat blanditiis tempore voluptatem doloremque molestiae. Amet quas nemo nobis ipsa. Temporibus similique vel illum repellat repellendus voluptates.\n\nArchitecto officiis non ut ullam necessitatibus. In harum sed et. Fugiat eaque et repellat eos laudantium quis. Quos aut esse alias."},
    {"id":"84","post_id":"9222","name":"Bethany Kuhlman","email":"corkery.rhianna@terry.com","body":"Non beatae voluptatibus et expedita. Ipsum non provident eveniet. Ipsum nulla quis minima exercitationem autem."},
    {"id":"88","post_id":"9084","name":"Wava Hane","email":"marlene.kuhn@blanda.com","body":"Sint possimus ea tempore velit iste deserunt. Consequatur reprehenderit perferendis numquam aspernatur. Laudantium deserunt et praesentium fuga eos error aliquam. Dolor ea aliquid sunt qui totam.\n\nEos provident tempore odio eligendi soluta voluptatem repellat. Et excepturi optio quis. Occaecati in magni culpa nostrum non molestiae. Consectetur ipsam dolore dolorem deserunt et perferendis ratione."},
    {"id":"89","post_id":"8187","name":"Stanton Parker","email":"mozell.moen@huels.com","body":"Eum consequatur deserunt omnis voluptate accusamus suscipit eum voluptatem. Voluptas in commodi vel laborum. Nemo odit sit consequatur tenetur placeat dolore magnam ducimus.\n\nAd ex enim magni repudiandae quia est iure. Voluptas provident minima asperiores sed nam eveniet molestiae. Est molestiae impedit repellendus assumenda distinctio autem."}]}
    
    