{"_meta":{"success":true,"code":200,"message":"OK. Everything worked as expected.","totalCount":2734,"pageCount":137,"currentPage":1,"perPage":20,"rateLimit":{"limit":10,"remaining":8,"reset":12}},"result":[
    {"id":"5339","user_id":"1808","title":"Quia quae aut ducimus. Laudantium earum et omnis cupiditate hic. Illo iste culpa enim.","body":"Impedit debitis perferendis qui quo. Eaque eos molestias nemo ea. Modi laudantium consequatur amet enim architecto qui. Modi doloribus et tenetur velit tempora.\n\nPlaceat praesentium eveniet quia qui autem saepe totam voluptatem. Molestias quia necessitatibus officiis cupiditate. Iusto expedita voluptate distinctio voluptatem inventore sed voluptatem et. Doloribus quis voluptas itaque maiores dolores occaecati expedita.\n\nIllum sit cupiditate velit alias eligendi saepe. Maxime eum assumenda qui voluptas corporis illum dolor. Sed magni iste ut et dolorem. Et consequatur labore et exercitationem.\n\nAssumenda quia sapiente quo. Veritatis nesciunt pariatur repudiandae. Fugit libero dolores et voluptatum.\n\nCulpa occaecati quod nihil. Ducimus adipisci ut est distinctio. Aut et enim non eius facilis eos."},
{"id":"5340","user_id":"1674","title":"Voluptatem et aspernatur omnis quam et. Ut laudantium eligendi nihil dolor est eius.","body":"Dignissimos et perspiciatis cumque id. Sint omnis sed distinctio temporibus accusantium. Dignissimos quis et non ipsum rem.\n\nEst nobis fugiat dignissimos totam. Voluptas et quia dignissimos facilis porro sequi. Qui est possimus ut et.\n\nQuos ut necessitatibus quia asperiores occaecati officia hic fuga. Perspiciatis sed dolorem quia velit voluptatem debitis rem. Quo est voluptas qui et."},
{"id":"5341","user_id":"2345","title":"Qui et laboriosam dolorem atque voluptatem tempore itaque. Provident esse voluptates quas quod.","body":"Delectus non vitae ut laboriosam. Omnis et dicta amet voluptates adipisci qui.\n\nMagnam mollitia dolor rerum nulla. Corrupti voluptatum sunt tenetur ad aut ut. Minima consequatur eaque quasi ea non eius aspernatur. Sequi recusandae labore officiis consequuntur. Non rem ut fugiat voluptas."},
{"id":"5342","user_id":"1292","title":"Sint vero placeat aperiam facilis. Pariatur quae itaque illo qui.","body":"Voluptatem asperiores quia dicta fuga. Facere sunt et ea eveniet nostrum eos labore quasi. Enim rem eaque omnis.\n\nVoluptatem nam repellendus earum quia inventore tempore maxime. Omnis ea in nisi quae a est. Qui quam ab molestias excepturi. Earum impedit at sed ipsum labore.\n\nEst aut vero est asperiores ullam. Nesciunt tempora eos molestias voluptas voluptas quidem asperiores. Eum rerum id et aut.\n\nConsequatur reprehenderit rem esse ut. Nam dicta placeat harum sed quae adipisci. Sed rerum maxime debitis saepe. Et voluptatem exercitationem dolores.\n\nDolores alias nihil illo dignissimos laborum sed. Enim ipsam et dignissimos quo. Omnis unde quaerat molestiae rerum. Pariatur reprehenderit qui tenetur inventore voluptatem ut debitis."},
{"id":"5343","user_id":"2222","title":"Officia cumque pariatur fugit reiciendis. Nam at id et labore rem.","body":"Aut quis magnam quibusdam qui. Fugiat pariatur qui quia laboriosam ducimus in. Qui quia libero unde doloremque. Qui at similique dolorem qui mollitia eaque.\n\nMaiores asperiores aut placeat numquam quos dolorum minus. Dignissimos commodi veritatis praesentium nobis. Magni voluptatibus dolorem quis dolor alias.\n\nQuis culpa deleniti ut sit et. Quos temporibus velit incidunt distinctio incidunt quia impedit quidem. Velit ab minus enim omnis ab. Quo atque recusandae praesentium eum qui.\n\nOfficiis quae libero voluptatem et autem beatae. Magni sed nam eum cum delectus qui molestias. Debitis commodi sunt velit sit ut. Rerum et at atque quos.\n\nConsectetur temporibus dolor dolores id molestiae. Autem recusandae sed molestiae beatae. Aliquid id ab rerum iusto dolorem.\n\nEt minima amet ex velit sapiente error. Officia error numquam sit molestias dicta atque modi. Nam hic velit dolorum cum tempore blanditiis."},
{"id":"5346","user_id":"1360","title":"Dolorum fuga minus omnis ex pariatur suscipit culpa. Ut officia provident rerum quod.","body":"Laborum et minus iure qui itaque deleniti at atque. Ipsum aliquam sunt alias adipisci nostrum ut. Quisquam facilis in ea. Soluta voluptatem dignissimos qui quia tempora quam a.\n\nDoloribus labore dignissimos consequuntur similique qui exercitationem et minima. Est neque dolores magni quis dolores ab ea possimus. Delectus non voluptas aut voluptas blanditiis quia tempore.\n\nLibero recusandae consequuntur ut. Sapiente occaecati consequatur voluptates harum qui quo ab. Facilis quia labore id minima iusto repellendus incidunt harum.\n\nEa rerum vitae sint deserunt et necessitatibus minima et. Ipsum autem suscipit recusandae nulla dolores. Recusandae non aut modi maxime.\n\nQuia qui ducimus eius et commodi qui eum. Nesciunt autem earum est porro in quia dolorem enim. Distinctio error magnam corporis quo. Adipisci sit sed et ut."},
{"id":"5353","user_id":"1177","title":"Sed veritatis sequi dicta eveniet. Sunt occaecati dolorum voluptate quae quo saepe.","body":"Dolorem ad autem et aut facilis ut eos. Quas qui assumenda aut aut consequatur ducimus accusamus eum. Expedita reiciendis odit asperiores facere totam aut vel.\n\nQui enim iusto ipsum. Enim voluptas consequatur quae est accusamus blanditiis. Veritatis architecto reiciendis qui ea quis ut eos.\n\nExplicabo est molestias modi esse repellendus repellendus. Vel itaque consequatur distinctio et ex voluptatem unde."},
{"id":"5354","user_id":"1510","title":"Dicta quam culpa fuga omnis consequuntur. Eveniet facilis blanditiis ratione exercitationem dolore.","body":"Sint repellat voluptas sunt nulla. Odio mollitia saepe soluta deserunt quod esse et.\n\nIste qui nisi explicabo neque. Veritatis odit quia doloribus alias itaque. Dolorum est rem quas nisi. Similique voluptas suscipit soluta est aut qui.\n\nDebitis omnis quia in tenetur molestiae asperiores. In commodi quibusdam quibusdam aliquam voluptatem aut omnis. Dolorum omnis nesciunt reiciendis quia ut cumque.\n\nAnimi dicta cum exercitationem possimus exercitationem dignissimos molestias. Laborum necessitatibus quis sed debitis omnis. Odio itaque placeat laudantium excepturi iste sunt.\n\nQuod mollitia velit quod modi veritatis. Molestiae velit est ullam nostrum laudantium distinctio. Deserunt maxime enim quidem et. Quam necessitatibus mollitia odio enim aut.\n\nSed aut aut velit itaque consequatur. Qui eum nesciunt illum. Veniam vero et voluptatibus possimus sunt officiis ab."},
{"id":"5355","user_id":"1429","title":"Consequatur aut quasi itaque totam. Qui voluptatem velit sapiente sit. Aut amet odit est et.","body":"Eos facere et est tempore. Numquam libero harum dolorem dolorum. Cupiditate tenetur ut voluptatum ut culpa ex cum.\n\nVoluptatem eos est voluptatem qui est molestias. Vel quia itaque voluptas in eligendi. Quaerat est quia assumenda ab. Commodi accusamus expedita libero."},
{"id":"5356","user_id":"1802","title":"Officiis vel rerum facilis. Expedita blanditiis fuga magnam est laborum aperiam non.","body":"Aspernatur explicabo veniam eveniet odio quia molestiae aperiam. Aliquam aspernatur animi aspernatur rerum qui quia. Hic rerum est perferendis qui. Natus velit deleniti aut velit temporibus voluptatum.\n\nVero ducimus deserunt inventore voluptatibus aliquid aperiam qui deleniti. Eum est quia optio est quaerat. Ut sed tempore et nostrum.\n\nTotam adipisci labore perspiciatis. Vitae illo sapiente voluptates quasi blanditiis quo quas eum. Aperiam non at rerum magnam. Nisi qui in est nihil.\n\nBeatae vero quo voluptatem deserunt voluptates dolore et. A soluta voluptas iusto id porro fuga culpa. Enim officia debitis nam voluptas. Animi in quia illo.\n\nNatus qui quisquam et quibusdam ut cumque error ipsam. Fugit repellat autem eligendi impedit sapiente voluptas et. Sed corporis non ut. Dolore voluptas vero quis ullam."},
{"id":"5358","user_id":"2431","title":"Quaerat voluptatem et exercitationem eum aut pariatur. Nulla provident voluptate sit qui.","body":"Eos inventore totam et qui porro quod. Mollitia molestias repellendus sed doloremque saepe. Architecto magnam ut dolores et repellendus labore. Quasi assumenda rerum quos eaque perspiciatis vel laborum. Nesciunt repellat qui aut maiores iste quia dicta.\n\nVel aut qui quo odit sunt dolorum ut. Aspernatur nisi dolores aut voluptates culpa qui quaerat. Fugiat repudiandae quidem unde vel dolorem neque. Illum harum aspernatur quibusdam ut quis reprehenderit. Velit molestias sapiente quibusdam.\n\nExercitationem pariatur molestiae eligendi ad autem sunt dignissimos. Occaecati ut qui reprehenderit nihil quo reiciendis laboriosam. Sit et nostrum voluptas rerum aliquam.\n\nQuia dignissimos molestiae mollitia pariatur ut. Qui aut quis sapiente repellat excepturi nulla sequi ut. Debitis repellat est ea aut enim. Possimus consequuntur officia error aut.\n\nMaiores sed fugiat deleniti quia id. Ipsa aliquam in consequatur voluptatum non. Ipsam recusandae quod eveniet voluptatem nesciunt ullam et laboriosam."},
{"id":"5360","user_id":"2010","title":"Facere quia ipsam voluptatum provident facere voluptatem facilis. Voluptate et iste vel.","body":"Quo qui voluptatem laboriosam quis. Ullam sint eligendi enim tenetur porro odit error. In et quia animi quo in. Dicta a itaque libero qui iste quo voluptas.\n\nEt ut dolores quis corporis distinctio corrupti. Qui culpa numquam officia cupiditate repellendus dolores reprehenderit. Magnam magni corrupti modi enim veritatis omnis rem.\n\nEt dolorum enim voluptatem et. Voluptate excepturi nihil amet autem explicabo veniam. Fugiat corrupti distinctio est eveniet quo. Sunt accusamus quas sed aliquid ullam voluptates quaerat.\n\nAperiam perspiciatis tenetur nulla et voluptas eos. Ducimus eum inventore impedit voluptatem. Explicabo natus vel vel et voluptas autem."},
{"id":"5361","user_id":"2035","title":"Eius dolorum sed quo. A quo vel qui qui quo dolorem qui.","body":"Sunt aut autem dignissimos et sit vel. Recusandae aut aut quia fuga qui nemo commodi iure. Laboriosam qui impedit laboriosam consequuntur. Ipsam magni facere sequi magnam fugit.\n\nRepellendus pariatur est quia odit illo voluptatem quo. Vel aut voluptatem voluptatem repellat."},
{"id":"5362","user_id":"2182","title":"Blanditiis omnis illo natus est. Voluptatem dolore illo saepe rerum possimus.","body":"Consequuntur eos sequi dolorum modi. Perspiciatis consequatur qui et blanditiis est quibusdam quos. Omnis recusandae est voluptatem nostrum hic tempore facilis eligendi. Sit ullam est nihil occaecati minus culpa.\n\nMaiores itaque est quo animi dolores sed mollitia. Est velit dolor dolore suscipit natus debitis quas. Minima iste ducimus porro a voluptas incidunt. Voluptatem est quia iusto consequatur quaerat dolor. Omnis cumque dolor cupiditate illum.\n\nIncidunt repudiandae nulla dolores corrupti consequuntur voluptatibus. Dolor placeat inventore eligendi tempore. Vero atque quis quo eveniet. Molestiae nisi consectetur consequatur et et tempore.\n\nEt debitis fugiat aut non non dolor. Ut quia pariatur totam voluptates neque minima. Quia excepturi laudantium excepturi eius.\n\nTemporibus officia nulla tenetur officiis amet illum autem. Rerum ex id inventore aspernatur asperiores eius ut. Ratione odit fuga quos repellendus voluptatem. Sequi sunt qui unde sunt architecto. Ullam possimus vel eum molestias eaque id quae accusamus."},
{"id":"5363","user_id":"1931","title":"Dolorem aut optio blanditiis veritatis. Quia quis nam ut tempora placeat error.","body":"Aut sed voluptatem quisquam dolorem assumenda. In ducimus sit sunt dolores. Suscipit ut laboriosam occaecati quidem sunt ratione sint. Maxime nihil et impedit ipsum. Voluptatum consequatur qui et eligendi amet.\n\nQuos molestiae distinctio quaerat porro. Sit consequuntur fugiat qui incidunt voluptates quas debitis. Aliquam perferendis est consectetur quod at deserunt ut debitis. Molestias facere voluptas aut omnis delectus. Sint voluptatem nihil eum debitis."},
{"id":"5364","user_id":"2284","title":"Eveniet ea ut eaque molestias. Debitis ducimus aspernatur excepturi tempora delectus.","body":"Ipsum architecto sapiente dolorem expedita. Nihil laboriosam quae nihil odit quo. Eius incidunt molestiae nihil laudantium unde voluptates eaque. Ipsum voluptatem quasi quam et vel sit.\n\nNisi non id assumenda fugiat qui esse. Odit velit eos ratione et et. Numquam aliquid velit doloribus nostrum neque omnis. Velit nemo a ullam odio laudantium enim.\n\nQuia sunt nostrum non inventore unde. Laboriosam ipsum officia et eum libero. Ut suscipit odio accusamus fugit similique a."},
{"id":"5365","user_id":"2246","title":"Non nihil ratione minima sequi quia aliquam. Quo et et magni rerum ipsum.","body":"Nam ea et quia non. Sapiente dolores omnis deleniti qui adipisci voluptatem sint. Nihil iste mollitia similique quos eum.\n\nAccusamus non in ut iste consequatur quae est. Rerum veritatis animi non id dolores quis.\n\nPorro non ducimus mollitia alias eveniet. Ut et ducimus aut consequatur eum. Et aut iste qui quas voluptas ut quia et. Modi sint soluta aut rerum similique quod."},
{"id":"5366","user_id":"2697","title":"Sint et vero modi rerum nulla. A est cum et saepe.","body":"Nihil voluptas in aut veniam nihil. Perspiciatis vel quidem aliquid qui in sit sed. Facere molestias magnam fugit. Doloribus et sed iste.\n\nPerferendis est impedit temporibus accusamus. Sit aut cum maiores perferendis vero vitae aut.\n\nIpsam ut velit voluptatum cumque sequi eum aut. Voluptas dolorum esse qui similique. Ad sit vero libero ipsa eius voluptate consequatur.\n\nQuibusdam laudantium harum eum eos et. Modi hic optio tenetur et. Voluptas excepturi incidunt esse dolorem autem. Quam error assumenda sed nemo molestias. Sapiente et quos ut beatae."},
{"id":"5367","user_id":"2736","title":"Perferendis incidunt amet ducimus. Laborum molestiae error odio quam.","body":"Sunt quidem nobis dolores. Ullam aspernatur rerum provident praesentium itaque voluptate aut. Accusantium eum assumenda quibusdam hic.\n\nUt suscipit iure non perferendis sint velit molestiae. Earum dolores quis debitis quis voluptatem saepe. Vel cumque fuga qui quas. Consequatur cum ut nulla dolores. Qui natus maiores ad vel eum nihil.\n\nVoluptatem eos eius eum amet adipisci et consequatur. Autem ullam distinctio optio ipsam dignissimos quisquam consequuntur. Accusantium nam id consequatur odio et dolorum dignissimos.\n\nEt minus voluptate in rerum sed aperiam laborum. Soluta dignissimos vero atque eveniet. Sapiente sit in et velit optio rerum. Atque est reiciendis nam eligendi sit."},
{"id":"5368","user_id":"2778","title":"Quas ut in ratione. Similique suscipit qui voluptate. Magnam nisi et veniam modi qui.","body":"Laborum et assumenda aut cumque. Maiores est laborum excepturi officia laboriosam ratione voluptatem quis. Quas aut eveniet sed tempora.\n\nCupiditate reiciendis quibusdam tempora sapiente omnis. Cum nemo commodi repellendus eum. Dignissimos nobis qui deleniti praesentium minus. Modi molestiae tempore et culpa et unde perferendis corporis.\n\nUt nihil non molestiae molestiae mollitia. Eos totam et molestias. Eaque eveniet voluptatem dignissimos harum temporibus odio. Qui nostrum aut odit velit dolor.\n\nAut est eos et ut quo quia ad qui. Maiores ut quia ipsam voluptatibus. Est ut maiores voluptas dolores quis nostrum esse.\n\nQuam possimus minima odio tempore laboriosam. Nesciunt aut quas perspiciatis iste earum unde accusantium. Neque necessitatibus libero est a qui aut provident.\n\nSit velit et odio. Id quasi nisi consequatur ut tempore magni. Eaque itaque nobis veritatis repellendus vel sint. Veritatis omnis occaecati ipsa consectetur soluta sed veritatis."}]}


