{"_meta":{"success":true,"code":200,"message":"OK. Everything worked as expected.","totalCount":1932,"pageCount":97,"currentPage":1,"perPage":20,"rateLimit":{"limit":10,"remaining":9,"reset":6}},"result":[
{"id":"1145","name":"amod updated mahajan updated","gender":"male","dob":"1973-11-23","email":"abc112@gmail.com","phone":"1-523-695-9940 x0235","website":"http://lehner.biz/ratione-iusto-corrupti-sit-dolor.html","address":"1499 Bria Gardens Suite 657\nSouth Evert, MS 19124","status":"active","_links":{"self":{"href":"https://gorest.co.in/public-api/users/1145"},"avatar":{"href":"http://lorempixel.com/250/250/people/?69697"}}},
{"id":"1146","name":"Kylee McGlynn","gender":"female","dob":"1919-06-11","email":"oberbrunner.yadira@halvorson.com","phone":"1-439-283-3048","website":"https://mante.biz/ea-illo-aut-eius-nihil-rem.html","address":"12702 Gordon Circle Suite 926\nMcKenzieburgh, NC 25415","status":"active","_links":{"self":{"href":"https://gorest.co.in/public-api/users/1146"},"avatar":{"href":"http://lorempixel.com/250/250/people/?73669"}}},
{"id":"1147","name":"Rosella Gorczany","gender":"female","dob":"2000-07-24","email":"breanne40@yahoo.com","phone":"291-596-3827","website":"http://www.beer.com/laborum-dolorem-est-et-repellat-reprehenderit","address":"56308 Jacky Square Suite 592\nDesmondbury, IL 54704","status":"inactive","_links":{"self":{"href":"https://gorest.co.in/public-api/users/1147"},"avatar":{"href":"http://lorempixel.com/250/250/people/?29680"}}},
{"id":"1148","name":"Lorem ipsum","gender":"male","dob":"1961-01-15","email":"test1544758581941@inspun.com","phone":"1-719-242-2868 x870","website":"http://schneider.com/","address":"24953 Schroeder Keys Apt. 132\nWest Amirville, IL 44205","status":"active","_links":{"self":{"href":"https://gorest.co.in/public-api/users/1148"},"avatar":{"href":"http://lorempixel.com/250/250/people/?10555"}}},
{"id":"1149","name":"Edythe Adams","gender":"female","dob":"1947-07-30","email":"nyah08@gmail.com","phone":"1-449-623-5151","website":"http://harris.com/ex-nam-est-aut-modi","address":"139 Stroman Pine\nLake Aileenchester, NJ 69331","status":"active","_links":{"self":{"href":"https://gorest.co.in/public-api/users/1149"},"avatar":{"href":"http://lorempixel.com/250/250/people/?60813"}}},
{"id":"1151","name":"Ignatius Toy","gender":"male","dob":"2016-08-12","email":"edyth.denesik@hotmail.com","phone":"306-775-0411 x106","website":"https://www.pacocha.com/sequi-enim-ut-aut-odit-in","address":"911 Treutel Tunnel\nJanelleland, SC 18816-2197","status":"inactive","_links":{"self":{"href":"https://gorest.co.in/public-api/users/1151"},"avatar":{"href":"http://lorempixel.com/250/250/people/?27886"}}},
{"id":"1152","name":"Lilly Ward","gender":"female","dob":"1927-10-31","email":"vsimonis@moen.org","phone":"345.223.7060 x700","website":"http://www.hartmann.info/et-cupiditate-cupiditate-rerum-impedit-sed","address":"4632 Robyn Track Apt. 958\nGoldnerville, WV 92537","status":"active","_links":{"self":{"href":"https://gorest.co.in/public-api/users/1152"},"avatar":{"href":"http://lorempixel.com/250/250/people/?33295"}}},
{"id":"1153","name":"Noelia Mann","gender":"female","dob":"1979-06-09","email":"bins.brando@gmail.com","phone":"763.272.4605 x19012","website":"https://www.luettgen.com/velit-assumenda-numquam-deleniti","address":"93845 Garth Bridge Suite 142\nSouth Agnes, ID 57274-8981","status":"inactive","_links":{"self":{"href":"https://gorest.co.in/public-api/users/1153"},"avatar":{"href":"http://lorempixel.com/250/250/people/?38183"}}},
{"id":"1154","name":"Llewellyn Wyman","gender":"male","dob":"1972-01-22","email":"stokes.davonte@moen.org","phone":"1-547-773-2257 x18486","website":"https://bednar.com/sunt-quibusdam-est-earum-et-aut.html","address":"293 Satterfield Place\nSouth Maureenhaven, FL 45257","status":"active","_links":{"self":{"href":"https://gorest.co.in/public-api/users/1154"},"avatar":{"href":"http://lorempixel.com/250/250/people/?36703"}}},
{"id":"1155","name":"Norval Murphy","gender":"male","dob":"1951-01-19","email":"kessler.mittie@hotmail.com","phone":"(873) 499-2217 x5824","website":"http://www.terry.com/asperiores-repudiandae-officia-perspiciatis-corporis-in-nisi-magni","address":"4834 Candida Junctions Suite 945\nDevenshire, CO 87882","status":"active","_links":{"self":{"href":"https://gorest.co.in/public-api/users/1155"},"avatar":{"href":"http://lorempixel.com/250/250/people/?34062"}}},
{"id":"1156","name":"Nettie Bayer","gender":"female","dob":"1940-03-21","email":"nannie50@yahoo.com","phone":"1-781-914-9385 x4120","website":"http://www.brekke.biz/et-illo-aut-inventore-commodi-ut-odit.html","address":"84592 Stokes Orchard Suite 942\nSouth Marcosborough, IA 71919","status":"inactive","_links":{"self":{"href":"https://gorest.co.in/public-api/users/1156"},"avatar":{"href":"http://lorempixel.com/250/250/people/?14211"}}},
{"id":"1157","name":"Ernest Hilll","gender":"male","dob":"1968-11-16","email":"epowlowski@heaney.net","phone":"+1-529-393-2046","website":"http://kreiger.net/sapiente-accusamus-facilis-voluptas","address":"99693 Leuschke Brooks Apt. 073\nLake Myriamton, SC 81204-1690","status":"inactive","_links":{"self":{"href":"https://gorest.co.in/public-api/users/1157"},"avatar":{"href":"http://lorempixel.com/250/250/people/?35228"}}},
{"id":"1158","name":"Vinnie Bailey","gender":"male","dob":"1977-04-20","email":"orville.dickinson@gmail.com","phone":"+1 (983) 764-1887","website":"http://www.wehner.com/","address":"530 Foster Cove Apt. 429\nPort Morgan, AL 23462-1243","status":"inactive","_links":{"self":{"href":"https://gorest.co.in/public-api/users/1158"},"avatar":{"href":"http://lorempixel.com/250/250/people/?80205"}}},
{"id":"1159","name":"Koby Hodkiewicz","gender":"male","dob":"2011-07-27","email":"reyes37@hotmail.com","phone":"962-205-8587 x69766","website":"http://www.schinner.com/autem-quas-ut-atque-amet-dolor.html","address":"23089 Altenwerth Green\nEast Devon, IN 93412","status":"inactive","_links":{"self":{"href":"https://gorest.co.in/public-api/users/1159"},"avatar":{"href":"http://lorempixel.com/250/250/people/?59410"}}},
{"id":"1160","name":"Brock Feil","gender":"male","dob":"1953-08-12","email":"matilda.hoppe@gmail.com","phone":"(435) 251-7528 x3056","website":"http://www.krajcik.com/id-rerum-voluptatum-impedit-sit-harum-ex.html","address":"83022 Jacobs Creek\nLake Jaylen, NM 28586-7930","status":"inactive","_links":{"self":{"href":"https://gorest.co.in/public-api/users/1160"},"avatar":{"href":"http://lorempixel.com/250/250/people/?50572"}}},
{"id":"1161","name":"Maxine Lindgren","gender":"male","dob":"2008-04-03","email":"wilderman.reggie@gmail.com","phone":"1-736-227-0688 x20748","website":"http://tremblay.com/","address":"452 Roosevelt Ports\nWunschland, OK 79854-2930","status":"inactive","_links":{"self":{"href":"https://gorest.co.in/public-api/users/1161"},"avatar":{"href":"http://lorempixel.com/250/250/people/?65190"}}},
{"id":"1162","name":"Helmer Goodwin","gender":"male","dob":"2006-06-09","email":"marisol.tillman@casper.com","phone":"+1.269.205.4752","website":"https://dibbert.net/architecto-est-consequatur-adipisci-rerum-praesentium-eius-cupiditate.html","address":"829 Prosacco Mountain Apt. 232\nNorth Lamont, NM 00226","status":"active","_links":{"self":{"href":"https://gorest.co.in/public-api/users/1162"},"avatar":{"href":"http://lorempixel.com/250/250/people/?99073"}}},
{"id":"1163","name":"Violet Schiller","gender":"female","dob":"1933-05-15","email":"greg.stamm@farrell.com","phone":"1-505-369-9119 x70733","website":"http://www.roberts.com/voluptatem-voluptas-voluptatem-nulla-explicabo-animi-deleniti-molestias.html","address":"1419 Hackett Street\nWeberburgh, VA 83007-0670","status":"inactive","_links":{"self":{"href":"https://gorest.co.in/public-api/users/1163"},"avatar":{"href":"http://lorempixel.com/250/250/people/?71253"}}},
{"id":"1164","name":"Clint Stracke","gender":"male","dob":"1938-02-18","email":"ryan63@yahoo.com","phone":"232.996.8503","website":"https://padberg.org/sit-repudiandae-ratione-quam-occaecati-harum.html","address":"588 Jared Ports\nDemarcomouth, IA 71436-6285","status":"inactive","_links":{"self":{"href":"https://gorest.co.in/public-api/users/1164"},"avatar":{"href":"http://lorempixel.com/250/250/people/?59264"}}},
{"id":"1165","name":"Manuela Bradtke","gender":"male","dob":"2008-12-28","email":"sydnie06@hotmail.com","phone":"764-344-4424 x675","website":"http://www.schmidt.com/","address":"149 Watsica View Apt. 367\nNorth Joesph, GA 23686","status":"inactive","_links":{"self":{"href":"https://gorest.co.in/public-api/users/1165"},"avatar":{"href":"http://lorempixel.com/250/250/people/?11440"}}}]}


